{
	"info": {
		"_postman_id": "92c91b57-32be-410a-8d6e-641c322f408a",
		"name": "test",
		"schema": "https://schema.getpostman.com/json/collection/v2.1.0/collection.json"
	},
	"item": [
		{
			"name": "getUserInfoFromEth",
			"request": {
				"method": "POST",
				"header": [
					{
						"key": "Content-Type",
						"name": "Content-Type",
						"value": "application/json",
						"type": "text"
					}
				],
				"body": {
					"mode": "raw",
					"raw": "{\n  \"user_id\": \"myeongkil@smartm2m.co.kr\"\n}"
				},
				"url": {
					"raw": "http://172.30.1.111:43100/api/v1/user/getUserInfoFromEth",
					"protocol": "http",
					"host": [
						"172",
						"30",
						"1",
						"111"
					],
					"port": "43100",
					"path": [
						"api",
						"v1",
						"user",
						"getUserInfoFromEth"
					]
				}
			},
			"response": []
		},
		{
			"name": "getPlatformInfoFromEth",
			"request": {
				"method": "POST",
				"header": [
					{
						"key": "Content-Type",
						"name": "Content-Type",
						"value": "application/json",
						"type": "text"
					}
				],
				"body": {
					"mode": "raw",
					"raw": "{\n  \"user_id\": \"myeongkil@smartm2m.co.kr\",\n  \"platform_id\": \"mobius0\"\n}"
				},
				"url": {
					"raw": "http://172.30.1.111:43100/api/v1/iot_platform/getPlatformCertFromEth",
					"protocol": "http",
					"host": [
						"172",
						"30",
						"1",
						"111"
					],
					"port": "43100",
					"path": [
						"api",
						"v1",
						"iot_platform",
						"getPlatformCertFromEth"
					]
				}
			},
			"response": []
		},
		{
			"name": "getDeviceformInfoFromEth",
			"request": {
				"method": "POST",
				"header": [
					{
						"key": "Content-Type",
						"name": "Content-Type",
						"value": "application/json",
						"type": "text"
					}
				],
				"body": {
					"mode": "raw",
					"raw": "{\n  \"user_id\": \"myeongkil@smartm2m.co.kr\",\n  \"platform_id\": \"mobius0\",\n  \"device_id\": \"m2mdev1\"\n}"
				},
				"url": {
					"raw": "http://172.30.1.111:43100/api/v1/iot_device/getDeviceInfoFromEth",
					"protocol": "http",
					"host": [
						"172",
						"30",
						"1",
						"111"
					],
					"port": "43100",
					"path": [
						"api",
						"v1",
						"iot_device",
						"getDeviceInfoFromEth"
					]
				}
			},
			"response": []
		}
	]
}
